<svg width="924" height="278" viewBox="0 0 924 278" fill="none" xmlns="http://www.w3.org/2000/svg">
<path d="M220.774 123.291C176.153 96.7915 102.551 94.3554 59.9546 107.284C53.1125 109.359 45.8798 105.498 43.8081 98.6573C41.7353 91.8127 45.5921 84.5837 52.4368 82.5046C101.336 67.6623 182.62 70.5286 233.99 101.022C240.144 104.675 242.159 112.621 238.513 118.762C234.864 124.915 226.911 126.945 220.773 123.291H220.774ZM219.312 162.539C216.182 167.62 209.539 169.213 204.466 166.094C167.267 143.228 110.54 136.602 66.529 149.962C60.8225 151.685 54.7936 148.469 53.0604 142.771C52.2341 140.032 52.5278 137.077 53.8768 134.554C55.2259 132.031 57.5204 130.146 60.2571 129.313C110.533 114.055 173.035 121.444 215.761 147.702C220.835 150.826 222.431 157.471 219.312 162.539ZM202.373 200.233C201.784 201.201 201.009 202.044 200.093 202.712C199.178 203.381 198.139 203.862 197.037 204.129C195.935 204.396 194.792 204.442 193.672 204.266C192.552 204.091 191.477 203.695 190.51 203.104C158.004 183.237 117.089 178.75 68.9032 189.757C67.7991 190.009 66.6561 190.042 65.5394 189.852C64.4228 189.663 63.3544 189.255 62.3953 188.653C61.4361 188.051 60.6051 187.265 59.9495 186.342C59.294 185.418 58.8269 184.374 58.5748 183.27C58.3209 182.166 58.2875 181.022 58.4763 179.905C58.6651 178.787 59.0724 177.718 59.6751 176.758C60.2777 175.799 61.0638 174.967 61.9882 174.312C62.9127 173.656 63.9573 173.189 65.0624 172.938C117.793 160.885 163.024 166.072 199.511 188.368C200.478 188.959 201.319 189.735 201.987 190.651C202.654 191.567 203.135 192.605 203.401 193.707C203.667 194.809 203.713 195.952 203.537 197.072C203.361 198.192 202.966 199.266 202.375 200.233H202.373ZM138.887 0.572021C62.4391 0.572021 0.461517 62.5471 0.461517 138.998C0.461517 215.455 62.4391 277.428 138.888 277.428C215.341 277.428 277.318 215.455 277.318 138.998C277.318 62.5484 215.342 0.572021 138.888 0.572021H138.887ZM377.075 128.365C353.174 122.665 348.921 118.664 348.921 110.259C348.921 102.318 356.396 96.9762 367.514 96.9762C378.291 96.9762 388.977 101.034 400.182 109.389C400.521 109.642 400.945 109.742 401.364 109.676C401.571 109.645 401.769 109.573 401.947 109.463C402.124 109.353 402.277 109.209 402.397 109.038L414.067 92.5863C414.547 91.9094 414.417 90.9746 413.769 90.4576C400.435 79.7586 385.419 74.5566 367.868 74.5566C342.061 74.5566 324.035 90.0411 324.035 112.202C324.035 135.964 339.585 144.376 366.456 150.872C389.326 156.141 393.187 160.552 393.187 168.443C393.187 177.186 385.383 182.621 372.822 182.621C358.871 182.621 347.491 177.922 334.761 166.898C334.44 166.632 334.029 166.498 333.612 166.524C333.191 166.558 332.806 166.754 332.538 167.077L319.453 182.649C318.904 183.295 318.973 184.261 319.608 184.819C334.419 198.042 352.635 205.027 372.291 205.027C400.101 205.027 418.069 189.831 418.069 166.314C418.069 146.439 406.196 135.446 377.075 128.365V128.365ZM501.172 155.003C501.172 171.785 490.832 183.497 476.03 183.497C461.397 183.497 450.358 171.253 450.358 155.003C450.358 138.753 461.397 126.508 476.031 126.508C490.595 126.508 501.172 138.489 501.172 155.003V155.003ZM480.985 104.793C468.931 104.793 459.045 109.541 450.892 119.268V108.319C450.892 107.455 450.191 106.75 449.327 106.75H427.927C427.062 106.75 426.363 107.455 426.363 108.319V229.983C426.363 230.847 427.062 231.551 427.927 231.551H449.325C450.191 231.551 450.892 230.847 450.892 229.983V191.579C459.046 200.731 468.935 205.201 480.985 205.201C503.381 205.201 526.054 187.96 526.054 155.003C526.054 122.038 503.381 104.793 480.985 104.793V104.793ZM584.171 183.672C568.829 183.672 557.263 171.346 557.263 155.003C557.263 138.59 568.428 126.681 583.816 126.681C599.256 126.681 610.901 139.006 610.901 155.361C610.901 171.77 599.659 183.672 584.171 183.672ZM584.171 104.793C555.327 104.793 532.731 127.003 532.731 155.362C532.731 183.412 555.172 205.387 583.816 205.387C612.762 205.387 635.428 183.253 635.428 155.003C635.428 126.848 612.918 104.793 584.171 104.793V104.793ZM697.021 106.75H673.472V82.672C673.472 81.8079 672.775 81.1037 671.91 81.1037H650.512C649.647 81.1037 648.942 81.8079 648.942 82.672V106.75H638.653C637.791 106.75 637.093 107.455 637.093 108.319V126.71C637.093 127.574 637.791 128.279 638.653 128.279H648.942V175.87C648.942 195.102 658.515 204.856 677.394 204.856C685.07 204.856 691.44 203.27 697.443 199.867C697.929 199.594 698.232 199.068 698.232 198.509V180.994C698.233 180.727 698.165 180.464 698.035 180.23C697.905 179.996 697.718 179.8 697.491 179.659C697.263 179.518 697.004 179.438 696.737 179.426C696.47 179.414 696.204 179.47 695.965 179.589C691.843 181.664 687.857 182.621 683.403 182.621C676.537 182.621 673.472 179.504 673.472 172.517V128.279H697.023C697.888 128.279 698.583 127.574 698.583 126.71V108.319C698.583 107.455 697.888 106.75 697.023 106.75H697.021ZM779.072 106.843V103.887C779.072 95.186 782.407 91.3069 789.888 91.3069C794.352 91.3069 797.934 92.1933 801.948 93.5322C802.183 93.6105 802.434 93.6316 802.679 93.5938C802.925 93.556 803.157 93.4603 803.359 93.3147C803.56 93.1691 803.723 92.9778 803.836 92.7565C803.948 92.5352 804.006 92.2903 804.006 92.042V74.0061C804.007 73.6705 803.9 73.3433 803.701 73.0731C803.502 72.8029 803.221 72.6041 802.9 72.506C798.66 71.244 793.235 69.9484 785.112 69.9484C765.344 69.9484 754.897 81.0814 754.897 102.127V106.656H744.616C744.201 106.657 743.802 106.822 743.507 107.116C743.213 107.409 743.047 107.807 743.045 108.223V126.71C743.045 127.573 743.751 128.28 744.616 128.28H754.897V201.688C754.897 202.552 755.594 203.256 756.457 203.256H777.857C778.721 203.256 779.425 202.552 779.425 201.688V128.279H799.407L830.017 201.667C826.54 209.378 823.124 210.912 818.46 210.912C814.688 210.912 810.719 209.786 806.659 207.566C806.469 207.463 806.262 207.4 806.047 207.38C805.833 207.36 805.617 207.384 805.413 207.449C805.003 207.593 804.66 207.897 804.487 208.293L797.234 224.207C797.067 224.566 797.044 224.976 797.168 225.352C797.293 225.729 797.557 226.043 797.906 226.231C805.478 230.332 812.316 232.083 820.762 232.083C836.565 232.083 845.299 224.723 853 204.92L890.128 108.978C890.221 108.741 890.254 108.485 890.225 108.233C890.197 107.98 890.107 107.738 889.964 107.528C889.821 107.318 889.629 107.145 889.405 107.026C889.18 106.906 888.93 106.843 888.675 106.842H866.397C866.071 106.842 865.754 106.944 865.488 107.132C865.222 107.32 865.021 107.586 864.913 107.893L842.091 173.083L817.092 107.85C816.98 107.553 816.78 107.298 816.519 107.118C816.258 106.938 815.948 106.842 815.631 106.842L779.072 106.843ZM731.505 106.75H710.103C709.24 106.75 708.536 107.455 708.536 108.319V201.687C708.536 202.551 709.24 203.255 710.103 203.255H731.505C732.368 203.255 733.073 202.551 733.073 201.687V108.319C733.073 107.455 732.367 106.75 731.505 106.75ZM720.914 64.2369C712.435 64.2369 705.556 71.1002 705.556 79.5776C705.556 88.0612 712.435 94.9331 720.914 94.9331C729.389 94.9331 736.262 88.0612 736.262 79.5776C736.262 71.1002 729.389 64.2369 720.914 64.2369V64.2369ZM909.276 116.037H905.355V121.037H909.276C911.233 121.037 912.401 120.08 912.401 118.537C912.401 116.909 911.233 116.037 909.276 116.037ZM911.817 123.17L916.078 129.134H912.486L908.652 123.664H905.354V129.134H902.349V113.327H909.397C913.07 113.327 915.486 115.206 915.486 118.368C915.486 120.959 913.989 122.544 911.817 123.17V123.17ZM908.478 108.065C900.764 108.065 894.926 114.198 894.926 121.707C894.926 129.212 900.722 135.263 908.4 135.263C916.111 135.263 921.957 129.134 921.957 121.621C921.957 114.115 916.155 108.065 908.478 108.065ZM908.4 136.77C899.93 136.77 893.339 129.967 893.339 121.707C893.339 113.448 900.015 106.567 908.477 106.567C916.948 106.567 923.538 113.368 923.538 121.621C923.538 129.883 916.866 136.77 908.4 136.77" fill="#191414"/>
</svg>
